…
# Examine the metadata for a given topic
hospitals <- list_datasets("Hospitals")
hospitals 
#> # A tibble: 68 × 7
#>    datasetid topic     title       description issued     modified   downloadurl
#>    <chr>     <chr>     <chr>       <chr>       <date>     <date>     <chr>      
#>  1 4jcv-atw7 Hospitals Ambulatory… A list of … 2022-01-07 2022-01-07 https://da…
#>  2 axe7-s95e Hospitals Ambulatory… This file … 2022-01-07 2022-01-07 https://da…
#>  3 wue8-3vwe Hospitals Ambulatory… This file … 2022-01-07 2022-01-07 https://da…
#>  4 muwa-iene Hospitals CMS Medica… This data … 2020-12-10 2022-01-07 https://da…
#>  5 ynj2-r877 Hospitals Complicati… Complicati… 2020-12-10 2022-01-07 https://da…
#>  6 qqw3-t4ie Hospitals Complicati… Complicati… 2020-12-10 2022-01-07 https://da…
#>  7 bs2r-24vh Hospitals Complicati… Complicati… 2020-12-10 2022-01-07 https://da…
#>  8 tqkv-mgxq Hospitals Comprehens… Comprehens… 2020-12-10 2021-06-15 https://da…
#>  9 bzsr-4my4 Hospitals Data Updat… Lists the … 2020-12-10 2022-01-07 https://da…
#> 10 y9us-9xdf Hospitals Footnote C… The footno… 2020-12-10 2021-09-22 https://da…
#> # … with 58 more rows
…
``` r
# Import the data for a given dataset
read_cms(
  datasetid = "9n3s-kdb3"
)
#> Rows: 19020 Columns: 12
#> ── Column specification ────────────────────────────────────────────────────────
#> Delimiter: ","
#> chr (11): Facility Name, Facility ID, State, Measure Name, Number of Dischar...
#> dbl  (1): Footnote
#> 
#> ℹ Use `spec()` to retrieve the full column specification for this data.
#> ℹ Specify the column types or set `show_col_types = FALSE` to quiet this message.
#> # A tibble: 19,020 × 12
#>    `Facility Name`  `Facility ID` State `Measure Name` `Number of Dis…` Footnote
#>    <chr>            <chr>         <chr> <chr>          <chr>               <dbl>
#>  1 SOUTHEAST HEALT… 010001        AL    READM-30-HIP-… 165                    NA
#>  2 SOUTHEAST HEALT… 010001        AL    READM-30-CABG… 193                    NA
#>  3 SOUTHEAST HEALT… 010001        AL    READM-30-AMI-… 424                    NA
#>  4 SOUTHEAST HEALT… 010001        AL    READM-30-HF-H… 905                    NA
#>  5 SOUTHEAST HEALT… 010001        AL    READM-30-COPD… 310                    NA
#>  6 SOUTHEAST HEALT… 010001        AL    READM-30-PN-H… 504                    NA
#>  7 MARSHALL MEDICA… 010005        AL    READM-30-COPD… 378                    NA
#>  8 MARSHALL MEDICA… 010005        AL    READM-30-AMI-… N/A                    NA
#>  9 MARSHALL MEDICA… 010005        AL    READM-30-HF-H… 223                    NA
#> 10 MARSHALL MEDICA… 010005        AL    READM-30-CABG… N/A                     5
#> # … with 19,010 more rows, and 6 more variables:
#> #   `Excess Readmission Ratio` <chr>, `Predicted Readmission Rate` <chr>,
#> #   `Expected Readmission Rate` <chr>, `Number of Readmissions` <chr>,
#> #   `Start Date` <chr>, `End Date` <chr>
```
