Tools for accessing, exploring and analyzing the CMS Provider Data Catalog • carecompare
…
# Import the data for a given dataset
read_cms(
  datasetid = "ynj2-r877"
)
#> Rows: 92112 Columns: 18
#> ── Column specification ────────────────────────────────────────────────────────
#> Delimiter: ","
#> chr (17): Facility ID, Facility Name, Address, City, State, ZIP Code, County...
#> dbl  (1): Footnote
#> 
#> ℹ Use `spec()` to retrieve the full column specification for this data.
#> ℹ Specify the column types or set `show_col_types = FALSE` to quiet this message.
#> # A tibble: 92,112 × 18
#>    `Facility ID` `Facility Name`    Address City  State `ZIP Code` `County Name`
#>    <chr>         <chr>              <chr>   <chr> <chr> <chr>      <chr>        
#>  1 010001        SOUTHEAST HEALTH … 1108 R… DOTH… AL    36301      HOUSTON      
#>  2 010001        SOUTHEAST HEALTH … 1108 R… DOTH… AL    36301      HOUSTON      
#>  3 010001        SOUTHEAST HEALTH … 1108 R… DOTH… AL    36301      HOUSTON      
#>  4 010001        SOUTHEAST HEALTH … 1108 R… DOTH… AL    36301      HOUSTON      
#>  5 010001        SOUTHEAST HEALTH … 1108 R… DOTH… AL    36301      HOUSTON      
#>  6 010001        SOUTHEAST HEALTH … 1108 R… DOTH… AL    36301      HOUSTON      
#>  7 010001        SOUTHEAST HEALTH … 1108 R… DOTH… AL    36301      HOUSTON      
#>  8 010001        SOUTHEAST HEALTH … 1108 R… DOTH… AL    36301      HOUSTON      
#>  9 010001        SOUTHEAST HEALTH … 1108 R… DOTH… AL    36301      HOUSTON      
#> 10 010001        SOUTHEAST HEALTH … 1108 R… DOTH… AL    36301      HOUSTON      
#> # … with 92,102 more rows, and 11 more variables: `Phone Number` <chr>,
#> #   `Measure ID` <chr>, `Measure Name` <chr>, `Compared to National` <chr>,
#> #   Denominator <chr>, Score <chr>, `Lower Estimate` <chr>,
#> #   `Higher Estimate` <chr>, Footnote <dbl>, `Start Date` <chr>,
#> #   `End Date` <chr>
…
